\relax 
\catcode `"\active 
\select@language{basque}
\@writefile{toc}{\select@language{basque}}
\@writefile{lof}{\select@language{basque}}
\@writefile{lot}{\select@language{basque}}
\@writefile{toc}{\contentsline {section}{\numberline {1}Sequence Fragment Assembly Problem}{2}}
\@writefile{toc}{\contentsline {subsection}{\numberline {1.1}Formalizazioa}{2}}
\@writefile{toc}{\contentsline {subsubsection}{\numberline {1.1.1}Soluzioen kodeketa}{2}}
\@writefile{toc}{\contentsline {subsubsection}{\numberline {1.1.2}Helburu funtzioa}{2}}
\@writefile{toc}{\contentsline {subsubsection}{\numberline {1.1.3}Murrizketak}{3}}
