\select@language {basque}
\contentsline {section}{\numberline {1}Azterketa Analitikoa}{3}
\contentsline {subsection}{\numberline {1.1}Ekuazio Sistema}{3}
\contentsline {subsection}{\numberline {1.2}Metatze Egitura}{4}
\contentsline {subsection}{\numberline {1.3}Kostu Analisia}{4}
\contentsline {subsection}{\numberline {1.4}Algoritmoa eta kodea}{5}
\contentsline {section}{\numberline {2}Azterketa Esperimentala}{7}
\contentsline {subsection}{\numberline {2.1}Proba}{7}
\contentsline {subsubsection}{\numberline {2.1.1}Lagina}{7}
\contentsline {subsubsection}{\numberline {2.1.2}Lagina}{7}
\contentsline {subsubsection}{\numberline {2.1.3}Lagina}{8}
\contentsline {subsubsection}{\numberline {2.1.4}Lagina}{8}
\contentsline {subsubsection}{\numberline {2.1.5}Konparaketa}{9}
